…
``` r
# install.packages("pak")
pak::pak("Theia-Finance-Labs/STDataMGMT")
```

## Example

``` r
library(STDataMGMT)
library(tibble)

# Some of the included dataset
production_types
#> # A tibble: 27 × 4
#>    ald_sector ald_business_unit   ald_production_unit emissions_factor_unit
#>    <chr>      <chr>               <chr>               <chr>                
#>  1 Power      RenewablesCap       MW                  tCO2e                
#>  2 Power      RenewablesCap       MWh                 tCO2e                
#>  3 Shipping   Freight             dwt km              tCO2                 
#>  4 Power      GasCap              MW                  tCO2e                
#>  5 Power      GasCap              MWh                 tCO2e                
#>  6 Power      OilCap              MW                  tCO2e                
#>  7 Power      OilCap              MWh                 tCO2e                
#>  8 Cement     Integrated facility t cement            tCO2e                
#>  9 Shipping   Passenger           dwt km              tCO2                 
#> 10 Oil&Gas    Gas                 GJ                  tCO2e                
#> # ℹ 17 more rows
```

``` r

scenarios_geographies
#> # A tibble: 2,509 × 5
#>    scenario_geography country_iso reg_count scenario_geography_newname country  
#>    <chr>              <chr>           <int> <chr>                      <chr>    
#>  1 Africa             DZ                 55 Africa                     Algeria  
#>  2 Africa             AO                 55 Africa                     Angola   
#>  3 Africa             BJ                 55 Africa                     Benin    
#>  4 Africa             BW                 55 Africa                     Botswana 
#>  5 Africa             BF                 55 Africa                     Burkina …
#>  6 Africa             BI                 55 Africa                     Burundi  
#>  7 Africa             CV                 55 Africa                     Cape Ver…
#>  8 Africa             CM                 55 Africa                     Cameroon 
#>  9 Africa             CF                 55 Africa                     Central …
#> 10 Africa             TD                 55 Africa                     Chad     
#> # ℹ 2,499 more rows
```

``` r

synthetic_eikon_data
#> # A tibble: 604 × 8
#>    company_id isin            pd net_profit_margin debt_equity_ratio volatility
#>         <int> <chr>        <dbl>             <dbl>             <dbl>      <dbl>
#>  1         71 GE6628588125 0.284            0.226              0.950      0.334
#>  2         36 HT3395729239 0.255            0.285              0.282      0.319
#>  3         14 AE9837146345 0.407            0.681              0.624      0.314
#>  4         89 AM9162167624 0.435            0.346              0.242      0.802
#>  5         99 TZ1549767986 0.594            0.914              0.344      0.639
#>  6         87 KI8336843677 0.394            0.761              0.824      0.191
#>  7         24 BS9152773656 0.805            0.234              0.332      0.906
#>  8         87 GN5796334323 0.150            0.0492             0.437      0.199
#>  9         18 SY5491274579 0.558            0.468              0.937      0.168
#> 10         71 CG1135897874 0.404            0.887              0.109      0.544
#> # ℹ 594 more rows
#> # ℹ 2 more variables: asset_drift <dbl>, ald_location <chr>
```
…
